DIMENSION : 51
NUMBER OF ITEMS : 50

TOUR_SECTION
1
22
8
26
31
28
3
36
35
20
2
29
21
16
50
34
30
9
49
10
39
33
45
15
44
42
40
19
41
13
25
14
24
43
7
23
48
6
27
51
46
12
47
18
4
17
37
5
38
11
32

PP_SECTION
2
3
4
5
0
0
0
0
0
0
0
0
0
0
0
0
0
19
0
21
22
0
0
0
0
0
0
0
0
0
32
0
0
0
0
37
0
0
0
0
0
0
44
0
0
47
0
0
50
51
EOF
